[gd_scene load_steps=9 format=2]

[ext_resource path="res://default_env_flat.tres" type="Environment" id=1]
[ext_resource path="res://skins/cube_8x8x8.ssm" type="SoftskinMesh" id=2]
[ext_resource path="res://scripts/gravity.gd" type="Script" id=3]

[sub_resource type="SpatialMaterial" id=1]

albedo_color = Color( 0.180392, 0.184314, 0.164706, 1 )
roughness = 0.82

[sub_resource type="PlaneMesh" id=2]


[sub_resource type="SoftskinCache" id=3]


[sub_resource type="SoftskinProxy" id=4]

cache = SubResource( 3 )
skin = ExtResource( 2 )

[sub_resource type="ShaderMaterial" id=5]


[node name="Spatial" type="Spatial"]

[node name="env" type="WorldEnvironment" parent="."]
environment = ExtResource( 1 )

[node name="sun" type="SpotLight" parent="."]
transform = Transform( 0.964881, -7.39825e-08, 0.262686, -0.234091, 0.453716, 0.859851, -0.119185, -0.891146, 0.437782, 3.02449, 9.67585, 4.81022 )
shadow_enabled = true
spot_range = 23.8204

[node name="pt" type="OmniLight" parent="."]
transform = Transform( 1, 0, 0, 0, 1, 0, 0, 0, 1, -1.97541, -1.38431, -2.11285 )
layers = 2
light_energy = 0.5
light_indirect_energy = 0.0
light_cull_mask = -2
shadow_enabled = true
omni_range = 6.23181

[node name="floor" type="MeshInstance" parent="."]
transform = Transform( 10, 0, 0, 0, 1, 0, 0, 0, 10, 0, -3.43326, 0 )
visible = false
material_override = SubResource( 1 )
mesh = SubResource( 2 )
material/0 = null

[node name="Skin" type="Softskin" parent="."]
transform = Transform( -1, 0, -8.74228e-08, 0, 1, 0, 8.74228e-08, 0, -1, 0, 0, 0 )
layers = 3
proxy = SubResource( 4 )
material = SubResource( 5 )
display_ligaments = true
normal_length = 0.05
groups/all_dots/name = "all_dots"
groups/all_dots/size = 974
groups/all_dots/type = "sf_DOT"
groups/all_dots/dot_damping = 1.0
groups/all_dots/dot_pressure = 0.0
groups/internal_fib/name = "internal_fib"
groups/internal_fib/size = 16
groups/internal_fib/type = "sf_FIBER"
groups/internal_fib/stiffness = 1.0
groups/internal_fib/shrink = 1.0
groups/all_ligs/name = "all_ligs"
groups/all_ligs/size = 974
groups/all_ligs/type = "sf_LIGAMENT"
groups/all_ligs/stiffness = 1.0
groups/all_ligs/shrink = 1.0
groups/gradient_ligs/name = "gradient_ligs"
groups/gradient_ligs/size = 974
groups/gradient_ligs/type = "sf_LIGAMENT"
groups/gradient_ligs/stiffness = 1.0
groups/gradient_ligs/shrink = 1.0
groups/sharps/name = "sharps"
groups/sharps/size = 72
groups/sharps/type = "sf_DOT"
groups/sharps/dot_damping = 1.0
groups/sharps/dot_pressure = 0.0

[node name="gravity" type="Position3D" parent="."]
transform = Transform( -0.942043, 0, 0.335492, 0, 0.999999, 0, -0.335492, 0, -0.942042, 0, 0, 5 )
script = ExtResource( 3 )
damping = 1.0

