[gd_resource type="ShaderMaterial" load_steps=2 format=2]

[ext_resource path="res://skin_glowing.shader" type="Shader" id=1]

[resource]

render_priority = 0
shader = ExtResource( 1 )
shader_param/albedo = Color( 1, 1, 1, 1 )
shader_param/specular = 0.5
shader_param/metallic = 0.0
shader_param/roughness = 1.0
shader_param/point_size = 1.0
shader_param/metallic_texture_channel = Plane( 1, 0, 0, 0 )
shader_param/roughness_texture_channel = Plane( 1, 0, 0, 0 )
shader_param/emission = Color( 0, 1, 0.976471, 1 )
shader_param/emission_energy = 0.0
shader_param/uv1_scale = Vector3( 1, 1, 1 )
shader_param/uv1_offset = Vector3( 0, 0, 0 )
shader_param/uv2_scale = Vector3( 1, 1, 1 )
shader_param/uv2_offset = Vector3( 0, 0, 0 )
_sections_unfolded = [ "shader_param" ]

